<svg width="372" height="216" viewBox="0 0 372 216" fill="none" xmlns="http://www.w3.org/2000/svg">
<path d="M176.352 61.5H162.415L88.9798 13L15.5447 61.5L47.17 82.5L46.7435 82.8481C44.2007 84.9235 42.1496 87.5369 40.7378 90.5L11.2565 71.5V152.5L84.1556 199.5V152.5H176.352V158.5L88.9798 216L0 158.5V56.5L88.9798 0L176.352 56.5V61.5Z" fill="#5C8EE5"/>
<path d="M60.79 122.631V102.213H53.41V96.678H74.73V102.213H67.35V122.631H60.79ZM91.5416 122.631H84.9816V102.664H90.3116L90.8446 106.764H90.9676C91.2136 105.233 91.8013 104.14 92.7306 103.484C93.6599 102.801 95.0403 102.459 96.8716 102.459C97.6096 102.459 98.2793 102.5 98.8806 102.582C99.4819 102.637 99.9876 102.691 100.398 102.746V109.142L100.316 109.224C99.8783 109.115 99.3726 109.019 98.7986 108.937C98.2519 108.855 97.6233 108.814 96.9126 108.814C95.9013 108.814 94.9856 108.978 94.1656 109.306C93.3729 109.634 92.7443 110.276 92.2796 111.233C91.8423 112.162 91.6236 113.556 91.6236 115.415L91.5416 122.631ZM109.224 112.791C109.224 109.128 110.003 106.491 111.561 104.878C113.119 103.265 115.757 102.459 119.474 102.459C121.962 102.459 123.957 102.814 125.46 103.525C126.964 104.236 128.043 105.356 128.699 106.887C129.383 108.39 129.724 110.358 129.724 112.791C129.724 115.196 129.383 117.151 128.699 118.654C128.043 120.157 126.964 121.264 125.46 121.975C123.957 122.658 121.962 123 119.474 123C115.757 123 113.119 122.207 111.561 120.622C110.003 119.009 109.224 116.399 109.224 112.791ZM119.474 117.383C121.06 117.383 122.126 117.041 122.672 116.358C123.246 115.647 123.533 114.417 123.533 112.668C123.533 111.001 123.246 109.812 122.672 109.101C122.126 108.363 121.06 107.994 119.474 107.994C117.944 107.994 116.878 108.363 116.276 109.101C115.702 109.812 115.415 111.001 115.415 112.668C115.415 114.417 115.702 115.647 116.276 116.358C116.878 117.041 117.944 117.383 119.474 117.383ZM142.877 130.175L146.034 122.672L138.121 102.746V102.664H145.46C146.226 104.823 146.936 106.996 147.592 109.183C148.276 111.37 148.822 113.611 149.232 115.907H149.314C149.724 113.638 150.244 111.411 150.872 109.224C151.528 107.037 152.266 104.851 153.086 102.664H160.138V102.787L149.601 130.257H142.877V130.175ZM177.568 102.459C180.192 102.459 182.31 102.732 183.923 103.279C185.536 103.826 186.711 104.837 187.449 106.313C188.214 107.762 188.597 109.866 188.597 112.627V122.631H182.652L182.447 120.745H182.324C181.805 121.428 180.998 121.975 179.905 122.385C178.812 122.795 177.39 123 175.641 123C170.912 123 168.548 120.786 168.548 116.358C168.548 114.472 169.163 112.996 170.393 111.93C171.65 110.837 173.618 110.29 176.297 110.29H182.365C182.174 109.142 181.682 108.377 180.889 107.994C180.096 107.584 178.743 107.379 176.83 107.379C175.627 107.379 174.438 107.475 173.263 107.666C172.115 107.83 171.104 108.021 170.229 108.24L170.106 108.158L170.147 103.402C170.694 103.238 171.391 103.088 172.238 102.951C173.085 102.787 173.974 102.664 174.903 102.582C175.86 102.5 176.748 102.459 177.568 102.459ZM177.322 118.162C179.017 118.162 180.288 117.957 181.135 117.547C181.982 117.11 182.42 116.426 182.447 115.497V114.472H177.814C176.611 114.472 175.764 114.65 175.272 115.005C174.807 115.333 174.575 115.784 174.575 116.358C174.575 117.041 174.821 117.52 175.313 117.793C175.805 118.039 176.475 118.162 177.322 118.162ZM217.075 96.678H223.635V122.631H217.116L209.736 111.643C209.162 110.768 208.684 110.03 208.301 109.429C207.919 108.828 207.563 108.226 207.235 107.625C206.907 107.024 206.538 106.313 206.128 105.493L206.005 105.657C206.388 106.969 206.62 108.199 206.702 109.347C206.784 110.468 206.825 111.561 206.825 112.627V122.631H200.265V96.678H206.784L214.164 107.666C214.738 108.513 215.217 109.251 215.599 109.88C215.982 110.481 216.337 111.083 216.665 111.684C216.993 112.285 217.362 112.996 217.772 113.816L217.895 113.652C217.622 112.504 217.417 111.397 217.28 110.331C217.144 109.238 217.075 108.158 217.075 107.092V96.678ZM259.733 122.508V122.631H252.763C252.572 121.975 252.339 121.223 252.066 120.376C251.82 119.529 251.547 118.627 251.246 117.67H242.39C241.843 119.583 241.338 121.237 240.873 122.631H233.903V122.549L242.308 96.678H251.328L259.733 122.508ZM246.736 101.352C246.463 102.746 246.066 104.441 245.547 106.436C245.028 108.431 244.481 110.468 243.907 112.545H249.77C249.169 110.468 248.608 108.431 248.089 106.436C247.57 104.441 247.173 102.746 246.9 101.352H246.736ZM293.656 96.719L285.579 122.631H276.559L268.892 96.719H276.231C276.668 98.0857 277.133 99.6437 277.625 101.393C278.117 103.142 278.595 104.933 279.06 106.764C279.552 108.568 279.976 110.263 280.331 111.848C280.714 113.406 281.001 114.704 281.192 115.743H281.356C281.547 114.704 281.821 113.406 282.176 111.848C282.559 110.263 282.982 108.568 283.447 106.764C283.939 104.96 284.431 103.183 284.923 101.434C285.415 99.6847 285.88 98.113 286.317 96.719H293.656Z" fill="#5C8EE5"/>
</svg>
